<?xml version="1.0" encoding="UTF-8"?>
<session version="1.0">
<refactoring comment="Delete 3 resources" deleteContents="false" description="Delete 3 resources" element1="/basic_tutorial" element2="/persiste" element3="/trabalho" flags="7" id="org.eclipse.ltk.core.refactoring.delete.resources" resources="3" stamp="1396187129436"/>
</session>